HDL_files/AND_gate_FPGA_ver1/AND_gate.sim/sim_1/behav/xsim/P_bit_out_data.vcd
$date
   Thu Nov 14 13:23:19 2024
$end

$version
  2024.1
  $dumpfile ("P_bit_out_data.vcd") 
$end

$timescale
  1ps
$end

$scope module P_bit_tb $end
$var reg 1 ! clk $end
$var reg 1 " GE $end
$var reg 1 # reset_n $end
$var reg 1 $ bias_en $end
$var reg 1 % bias_value $end
$var reg 8 & Tanh_LUT_in [7:0] $end
$var reg 32 ' seed [31:0] $end
$var wire 1 ( P_bit_out $end
$var integer 32 ) file [31:0] $end
$scope module p_bit_inst $end
$var wire 1 * clk $end
$var wire 1 + GE $end
$var wire 1 , reset_n $end
$var wire 1 - bias_en $end
$var wire 1 . bias_value $end
$var wire 8 / Tanh_LUT_in [7:0] $end
$var wire 32 0 seed [31:0] $end
$var wire 1 ( P_bit_out $end
$var wire 32 1 LFSR_out [31:0] $end
$var wire 32 2 Tanh_LUT_out [31:0] $end
$scope module lfsr_inst $end
$var wire 32 0 seed [31:0] $end
$var wire 1 * clk $end
$var wire 1 , reset_n $end
$var wire 32 1 LFSR_out [31:0] $end
$var reg 32 3 r_LFSR [31:0] $end
$var reg 1 4 feedback $end
$upscope $end
$scope module tanh_lut_inst $end
$var wire 8 / Tanh_LUT_in [7:0] $end
$var reg 32 5 Tanh_LUT_out [31:0] $end
$upscope $end
$scope module comparator_inst $end
$var wire 1 + GE $end
$var wire 1 * clk $end
$var wire 1 - bias_en $end
$var wire 1 . bias_value $end
$var reg 1 6 s_out $end
$var wire 32 2 Tanh_LUT_out [31:0] $end
$var wire 32 1 LFSR_out [31:0] $end
$upscope $end
$upscope $end
$upscope $end
$enddefinitions $end

#0
$dumpvars
0!
1"
0#
0$
0%
b0 &
b10101010101010101010101010101010 '
x(
b11111111111111111011000111100000 )
0*
1+
0,
0-
0.
b0 /
b10101010101010101010101010101010 0
b10101010101010101010101010101010 1
b10000000000000000000000000000000 2
b10101010101010101010101010101010 3
04
b10000000000000000000000000000000 5
x6
$end

#5000
1!
0(
1*
06

#10000
0!
1#
0*
1,

#15000
1!
1*
b1010101010101010101010101010100 1
b1010101010101010101010101010100 3
14

#20000
0!
0*

#25000
1!
1(
1*
b10101010101010101010101010101001 1
b10101010101010101010101010101001 3
04
16

#30000
0!
0*

#35000
1!
0(
1*
b1010101010101010101010101010010 1
b1010101010101010101010101010010 3
06

#40000
0!
0*

#45000
1!
1(
1*
b10101010101010101010101010100100 1
b10101010101010101010101010100100 3
14
16

#50000
0!
0*

#55000
1!
0(
1*
b1010101010101010101010101001001 1
b1010101010101010101010101001001 3
04
06

#60000
0!
0*

#65000
1!
1(
1*
b10101010101010101010101010010010 1
b10101010101010101010101010010010 3
16

#70000
0!
0*

#75000
1!
0(
1*
b1010101010101010101010100100100 1
b1010101010101010101010100100100 3
14
06

#80000
0!
0*

#85000
1!
1(
1*
b10101010101010101010101001001001 1
b10101010101010101010101001001001 3
04
16

#90000
0!
0*

#95000
1!
0(
1*
b1010101010101010101010010010010 1
b1010101010101010101010010010010 3
06

#100000
0!
0*

#105000
1!
1(
1*
b10101010101010101010100100100100 1
b10101010101010101010100100100100 3
14
16

#110000
0!
0*

#115000
1!
0(
1*
b1010101010101010101001001001001 1
b1010101010101010101001001001001 3
04
06

#120000
0!
0*

#125000
1!
1(
1*
b10101010101010101010010010010010 1
b10101010101010101010010010010010 3
16

#130000
0!
0*

#135000
1!
0(
1*
b1010101010101010100100100100100 1
b1010101010101010100100100100100 3
14
06

#140000
0!
0*

#145000
1!
1(
1*
b10101010101010101001001001001001 1
b10101010101010101001001001001001 3
04
16

#150000
0!
0*

#155000
1!
0(
1*
b1010101010101010010010010010010 1
b1010101010101010010010010010010 3
06

#160000
0!
0*

#165000
1!
1(
1*
b10101010101010100100100100100100 1
b10101010101010100100100100100100 3
14
16

#170000
0!
0*

#175000
1!
0(
1*
b1010101010101001001001001001001 1
b1010101010101001001001001001001 3
04
06

#180000
0!
0*

#185000
1!
1(
1*
b10101010101010010010010010010010 1
b10101010101010010010010010010010 3
16

#190000
0!
0*

#195000
1!
0(
1*
b1010101010100100100100100100100 1
b1010101010100100100100100100100 3
14
06

#200000
0!
0*

#205000
1!
1(
1*
b10101010101001001001001001001001 1
b10101010101001001001001001001001 3
04
16

#210000
0!
0*

#215000
1!
0(
1*
b1010101010010010010010010010010 1
b1010101010010010010010010010010 3
06

#220000
0!
0*

#225000
1!
1(
1*
b10101010100100100100100100100100 1
b10101010100100100100100100100100 3
16

#230000
0!
0*

#235000
1!
0(
1*
b1010101001001001001001001001000 1
b1010101001001001001001001001000 3
06

#240000
0!
0*

#245000
1!
1(
1*
b10101010010010010010010010010000 1
b10101010010010010010010010010000 3
16

#250000
0!
0*

#255000
1!
0(
1*
b1010100100100100100100100100000 1
b1010100100100100100100100100000 3
14
06

#260000
0!
0*

#265000
1!
1(
1*
b10101001001001001001001001000001 1
b10101001001001001001001001000001 3
04
16

#270000
0!
0*

#275000
1!
0(
1*
b1010010010010010010010010000010 1
b1010010010010010010010010000010 3
06

#280000
0!
0*

#285000
1!
1(
1*
b10100100100100100100100100000100 1
b10100100100100100100100100000100 3
16

#290000
0!
0*

#295000
1!
0(
1*
b1001001001001001001001000001000 1
b1001001001001001001001000001000 3
06

#300000
0!
0*

#305000
1!
1(
1*
b10010010010010010010010000010000 1
b10010010010010010010010000010000 3
16

#310000
0!
0*

#315000
1!
0(
1*
b100100100100100100100000100000 1
b100100100100100100100000100000 3
14
06

#320000
0!
0*

#325000
1!
1(
1*
b1001001001001001001000001000001 1
b1001001001001001001000001000001 3
16

#330000
0!
0*

#335000
1!
1*
b10010010010010010010000010000011 1
b10010010010010010010000010000011 3
04

#340000
0!
0*

#345000
1!
0(
1*
b100100100100100100000100000110 1
b100100100100100100000100000110 3
06

#350000
0!
0*

#355000
1!
1(
1*
b1001001001001001000001000001100 1
b1001001001001001000001000001100 3
16

#360000
0!
0*

#365000
1!
1*
b10010010010010010000010000011000 1
b10010010010010010000010000011000 3

#370000
0!
0*

#375000
1!
0(
1*
b100100100100100000100000110000 1
b100100100100100000100000110000 3
14
06

#380000
0!
0*

#385000
1!
1(
1*
b1001001001001000001000001100001 1
b1001001001001000001000001100001 3
16

#390000
0!
0*

#395000
1!
1*
b10010010010010000010000011000011 1
b10010010010010000010000011000011 3
04

#400000
0!
0*

#405000
1!
0(
1*
b100100100100000100000110000110 1
b100100100100000100000110000110 3
06

#410000
0!
0*

#415000
1!
1(
1*
b1001001001000001000001100001100 1
b1001001001000001000001100001100 3
16

#420000
0!
0*

#425000
1!
1*
b10010010010000010000011000011000 1
b10010010010000010000011000011000 3

#430000
0!
0*

#435000
1!
0(
1*
b100100100000100000110000110000 1
b100100100000100000110000110000 3
14
06

#440000
0!
0*

#445000
1!
1(
1*
b1001001000001000001100001100001 1
b1001001000001000001100001100001 3
04
16

#450000
0!
0*

#455000
1!
1*
b10010010000010000011000011000010 1
b10010010000010000011000011000010 3
14

#460000
0!
0*

#465000
1!
0(
1*
b100100000100000110000110000101 1
b100100000100000110000110000101 3
04
06

#470000
0!
0*

#475000
1!
1(
1*
b1001000001000001100001100001010 1
b1001000001000001100001100001010 3
14
16

#480000
0!
0*

#485000
1!
1*
b10010000010000011000011000010101 1
b10010000010000011000011000010101 3

#490000
0!
0*

#495000
1!
0(
1*
b100000100000110000110000101011 1
b100000100000110000110000101011 3
06

#500000
0!
0*

#505000
1!
1(
1*
b1000001000001100001100001010111 1
b1000001000001100001100001010111 3
16

#510000
0!
0*

#515000
1!
1*
b10000010000011000011000010101111 1
b10000010000011000011000010101111 3
04

#520000
0!
0*

#525000
1!
0(
1*
b100000110000110000101011110 1
b100000110000110000101011110 3
06

#530000
0!
0*

#535000
1!
1(
1*
b1000001100001100001010111100 1
b1000001100001100001010111100 3
16

#540000
0!
0*

#545000
1!
1*
b10000011000011000010101111000 1
b10000011000011000010101111000 3

#550000
0!
0*

#555000
1!
1*
b100000110000110000101011110000 1
b100000110000110000101011110000 3
14

#560000
0!
0*

#565000
1!
1*
b1000001100001100001010111100001 1
b1000001100001100001010111100001 3
04

#570000
0!
0*

#575000
1!
1*
b10000011000011000010101111000010 1
b10000011000011000010101111000010 3
14

#580000
0!
0*

#585000
1!
0(
1*
b110000110000101011110000101 1
b110000110000101011110000101 3
04
06

#590000
0!
0*

#595000
1!
1(
1*
b1100001100001010111100001010 1
b1100001100001010111100001010 3
14
16

#600000
0!
0*

#605000
1!
1*
b11000011000010101111000010101 1
b11000011000010101111000010101 3

#610000
0!
0*

#615000
1!
1*
b110000110000101011110000101011 1
b110000110000101011110000101011 3

#620000
0!
0*

#625000
1!
1*
b1100001100001010111100001010111 1
b1100001100001010111100001010111 3

#630000
0!
0*

#635000
1!
1*
b11000011000010101111000010101111 1
b11000011000010101111000010101111 3
04

#640000
0!
0*

#645000
1!
0(
1*
b10000110000101011110000101011110 1
b10000110000101011110000101011110 3
14
06

#650000
0!
0*

#655000
1!
1*
b1100001010111100001010111101 1
b1100001010111100001010111101 3

#660000
0!
0*

#665000
1!
1(
1*
b11000010101111000010101111011 1
b11000010101111000010101111011 3
16

#670000
0!
0*

#675000
1!
1*
b110000101011110000101011110111 1
b110000101011110000101011110111 3
04

#680000
0!
0*

#685000
1!
1*
b1100001010111100001010111101110 1
b1100001010111100001010111101110 3

#690000
0!
0*

#695000
1!
1*
b11000010101111000010101111011100 1
b11000010101111000010101111011100 3
14

#700000
0!
0*

#705000
1!
0(
1*
b10000101011110000101011110111001 1
b10000101011110000101011110111001 3
04
06

#710000
0!
0*

#715000
1!
1*
b1010111100001010111101110010 1
b1010111100001010111101110010 3
14

#720000
0!
0*

#725000
1!
1(
1*
b10101111000010101111011100101 1
b10101111000010101111011100101 3
16

#730000
0!
0*

#735000
1!
1*
b101011110000101011110111001011 1
b101011110000101011110111001011 3

#740000
0!
0*

#745000
1!
1*
b1010111100001010111101110010111 1
b1010111100001010111101110010111 3

#750000
0!
0*

#755000
1!
1*
b10101111000010101111011100101111 1
b10101111000010101111011100101111 3
04

#760000
0!
0*

#765000
1!
0(
1*
b1011110000101011110111001011110 1
b1011110000101011110111001011110 3
06

#770000
0!
0*

#775000
1!
1(
1*
b10111100001010111101110010111100 1
b10111100001010111101110010111100 3
14
16

#780000
0!
0*

#785000
1!
0(
1*
b1111000010101111011100101111001 1
b1111000010101111011100101111001 3
04
06

#790000
0!
0*

#795000
1!
1(
1*
b11110000101011110111001011110010 1
b11110000101011110111001011110010 3
16

#800000
0!
0*

#805000
1!
0(
1*
b11100001010111101110010111100100 1
b11100001010111101110010111100100 3
06

#810000
0!
0*

#815000
1!
1*
b11000010101111011100101111001000 1
b11000010101111011100101111001000 3
14

#820000
0!
0*

#825000
1!
1*
b10000101011110111001011110010001 1
b10000101011110111001011110010001 3
04

#830000
0!
0*

#835000
1!
1*
b1010111101110010111100100010 1
b1010111101110010111100100010 3
14

#840000
0!
0*

#845000
1!
1(
1*
b10101111011100101111001000101 1
b10101111011100101111001000101 3
16

#850000
0!
0*

#855000
1!
1*
b101011110111001011110010001011 1
b101011110111001011110010001011 3

#860000
0!
0*

#865000
1!
1*
b1010111101110010111100100010111 1
b1010111101110010111100100010111 3
04

#870000
0!
0*

#875000
1!
1*
b10101111011100101111001000101110 1
b10101111011100101111001000101110 3

#880000
0!
0*

#885000
1!
0(
1*
b1011110111001011110010001011100 1
b1011110111001011110010001011100 3
06

#890000
0!
0*

#895000
1!
1(
1*
b10111101110010111100100010111000 1
b10111101110010111100100010111000 3
16

#900000
0!
0*

#905000
1!
0(
1*
b1111011100101111001000101110000 1
b1111011100101111001000101110000 3
14
06

#910000
0!
0*

#915000
1!
1(
1*
b11110111001011110010001011100001 1
b11110111001011110010001011100001 3
04
16

#920000
0!
0*

#925000
1!
0(
1*
b11101110010111100100010111000010 1
b11101110010111100100010111000010 3
14
06

#930000
0!
0*

#935000
1!
1*
b11011100101111001000101110000101 1
b11011100101111001000101110000101 3
04

#940000
0!
0*

#945000
1!
1*
b10111001011110010001011100001010 1
b10111001011110010001011100001010 3

#950000
0!
0*

#955000
1!
1*
b1110010111100100010111000010100 1
b1110010111100100010111000010100 3

#960000
0!
0*

#965000
1!
1(
1*
b11100101111001000101110000101000 1
b11100101111001000101110000101000 3
14
16

#970000
0!
0*

#975000
1!
0(
1*
b11001011110010001011100001010001 1
b11001011110010001011100001010001 3
06

#980000
0!
0*

#985000
1!
1*
b10010111100100010111000010100011 1
b10010111100100010111000010100011 3
04

#990000
0!
0*

#995000
1!
1*
b101111001000101110000101000110 1
b101111001000101110000101000110 3
14

